id;basket_state;expected_delivery_time;delivery_address
1;VALIDATED;2020-04-22T05:25:29;Borders Ergonomic plum
2;NOTFINISHED;2020-04-22T08:27:06;Czech Koruna
3;NOTFINISHED;2020-04-21T17:10:32;paradigms firewall
4;VALIDATED;2020-04-22T00:17:57;Cayman Islands Dollar
5;PAID;2020-04-21T21:49:49;Som Streamlined
6;PAID;2020-04-22T07:38:02;functionalities Ergonomic Concrete Sausages Stand-alone
7;PAID;2020-04-21T12:45:20;calculating Representative
8;PAID;2020-04-21T08:49:29;uniform Georgia
9;PAID;2020-04-22T01:10:24;Incredible
10;VALIDATED;2020-04-21T15:45:13;Global calculate Health
